Value,Feature,Target,Latitude,Longitude
1.860271888,Air_Pressure_Harmaja,1,60.11,24.98
-1.742476545,Air_Pressure_Harmaja,3,60.11,24.98
-2.7710273,Air_Pressure_Kumpula,0,60.20,24.96
-1.341408264,Air_Pressure_Vuosaari,2,60.21,25.20
1.427274233,Air_Temperature_Kumpula,2,60.20,24.96
-2.513447054,Air_Temperature_Malmi,0,60.25,25.05
2.134725395,Air_Temperature_Malmi,4,60.25,25.05
-3.877904353,Air_Temperature_Vuosaari,4,60.21,25.20
2.104535949,Bus_Hanasaari,0,60.16,24.85
1.806792199,Bus_Hanasaari,1,60.16,24.85
-1.870423091,Bus_Hanasaari,2,60.16,24.85
-1.453219624,Bus_Helsinki_backnas,2,60.27,25.25
-1.282449578,Bus_Helsinki_itasalmi,1,60.26,25.17
-1.82119634,Bus_Helsinki_vartiokyla,2,60.22,25.08
-1.490803905,Bus_Jakomaki,3,60.25,25.07
1.520211428,Bus_Kivihaan_tunneli,2,60.21,24.91
2.089154041,Bus_Kivihaan_tunneli,4,60.21,24.91
1.988987814,Bus_Kivihaka,4,60.21,24.90
-2.232306708,Bus_Pitajanmaki,0,60.22,24.88
-1.651624602,Bus_Pukinmaki,0,60.24,24.98
-1.350909468,Bus_Pukinmaki,1,60.24,24.98
-1.755051615,Bus_Viikinmaki,3,60.22,24.99
2.338626126,Car_Hakuninmaa,4,60.26,24.88
1.975038262,Car_Helsinki_backnas,0,60.27,25.25
1.696716443,Car_Helsinki_itasalmi,0,60.26,25.17
-1.534580621,Car_Helsinki_itasalmi,2,60.26,25.17
1.326232572,Car_Helsinki_tuomarinkartano,3,60.26,24.95
-1.561805886,Car_Kannelmaki,2,60.23,24.88
1.831922921,Car_Kivihaan_tunneli,3,60.21,24.91
-1.690264433,Car_Kivihaka,3,60.21,24.90
-1.559574742,Car_Kulosaari,2,60.19,24.99
-1.238725665,Car_Munkkiniemi,1,60.20,24.87
-1.991928966,Car_Oulunkyla,4,60.22,24.95
-1.17721475,Car_Pirkkola,2,60.23,24.91
-1.802070248,Car_Satamatie,0,60.24,25.15
1.872271919,Car_Tammisto,4,60.26,24.95
2.110860754,Clouds_Kaisaniemi,2,60.18,24.94
1.550311919,Dew_Point_Temperature_Harmaja,1,60.11,24.98
-1.808456575,Dew_Point_Temperature_Kaisaniemi,1,60.18,24.94
1.202456582,Dew_Point_Temperature_Kaisaniemi,2,60.18,24.94
-3.070675276,Dew_Point_Temperature_Kaisaniemi,4,60.18,24.94
-1.876753876,Dew_Point_Temperature_Kumpula,0,60.20,24.96
-1.894767481,Dew_Point_Temperature_Kumpula,2,60.20,24.96
-1.371234887,Dew_Point_Temperature_Vuosaari,2,60.21,25.20
-1.422539951,Gust_Speed_Harmaja,2,60.11,24.98
-1.489460888,Gust_Speed_Harmaja,3,60.11,24.98
1.771166702,Gust_Speed_Kaisaniemi,0,60.18,24.94
1.332941589,Gust_Speed_Kaisaniemi,3,60.18,24.94
-1.904879263,Gust_Speed_Malmi,4,60.25,25.05
1.76742769,Gust_Speed_Vuosaari,3,60.21,25.20
1.923404167,Humidity_Harmaja,0,60.11,24.98
4.055345007,Humidity_Harmaja,3,60.11,24.98
1.371026339,Humidity_Kaisaniemi,1,60.18,24.94
1.365154492,Humidity_Malmi,1,60.25,25.05
-1.370675909,Humidity_Vuosaari,2,60.21,25.20
-2.928299722,Humidity_Vuosaari,4,60.21,25.20
1.667918323,NO2_Kallio,1,60.19,24.95
-1.468885149,NO2_Kallio,3,60.19,24.95
-4.329235712,NO2_Kallio,4,60.19,24.95
2.011061395,NO2_Lansisatama,0,60.16,24.92
2.149647563,NO2_Lansisatama,4,60.16,24.92
2.56935207,NO2_Mannerheimintie,0,60.17,24.94
2.469151306,NO2_Pirkkola,0,60.23,24.92
-2.208131489,NO2_Pirkkola,1,60.23,24.92
-2.32947599,NO2_Pirkkola,2,60.23,24.92
-2.772391585,NO2_Pirkkola,3,60.23,24.92
-2.620841736,O3_Kallio,4,60.19,24.95
2.695102094,O3_Makelankatu,0,60.20,24.95
-3.545491397,O3_Makelankatu,1,60.20,24.95
-1.3255115,O3_Makelankatu,3,60.20,24.95
1.573998642,Rain_Intensity_Kaisaniemi,1,60.18,24.94
-1.864871686,Rain_Intensity_Kumpula,4,60.20,24.96
2.037162931,Snow_Depth_Kaisaniemi,0,60.18,24.94
1.410799551,Snow_Depth_Kaisaniemi,1,60.18,24.94
2.35735507,Snow_Depth_Kaisaniemi,4,60.18,24.94
1.461561543,Snow_Depth_Kumpula,1,60.20,24.96
1.434580486,Snow_Depth_Kumpula,2,60.20,24.96
2.045793364,SO2_Kallio,4,60.19,24.95
-1.763420775,SO2_Lansisatama,3,60.16,24.92
2.290482463,Truck_Helsinki_backnas,4,60.27,25.25
-1.267259213,Truck_Kivihaka,2,60.21,24.90
1.682820017,Truck_Kulosaari,3,60.19,24.99
-2.143343923,Truck_Kulosaari,4,60.19,24.99
1.30060483,Truck_Munkkiniemi,1,60.20,24.87
1.787249565,Truck_Pakila,3,60.24,24.94
2.104422251,Truck_Pitajanmaki,1,60.22,24.88
-1.95128292,Truck_Satamatie,4,60.24,25.15
2.103338041,Visibility_Kaisaniemi,3,60.18,24.94
-1.731793493,Visibility_Kumpula,0,60.20,24.96
-1.237556787,Visibility_Kumpula,2,60.20,24.96
1.306759251,Visibility_Kumpula,3,60.20,24.96
2.267889906,Visibility_Malmi,4,60.25,25.05
2.343073973,Wind_Direction_Harmaja,3,60.11,24.98
-2.258606566,Wind_Direction_Malmi,0,60.25,25.05
-2.527266459,Wind_Speed_Harmaja,0,60.11,24.98
1.407738867,Wind_Speed_Harmaja,1,60.11,24.98
-1.311432263,Wind_Speed_Malmi,1,60.11,24.98
-2.11212457,Wind_Speed_Vuosaari,0,60.21,25.20
-1.720169478,Wind_Speed_Vuosaari,1,60.21,25.20
1.333421851,Wind_Speed_Vuosaari,3,60.21,25.20
